<?xml version="1.0" standalone="no"?>
<!DOCTYPE svg PUBLIC "-//W3C//DTD SVG 1.1//EN" "http://www.w3.org/Graphics/SVG/1.1/DTD/svg11.dtd" >
<svg xmlns="http://www.w3.org/2000/svg">
<metadata>Generated by IcoMoon</metadata>
<defs>
<font id="icomoon" horiz-adv-x="1024">
<font-face units-per-em="1024" ascent="960" descent="-64" />
<missing-glyph horiz-adv-x="1024" />
<glyph unicode="&#x20;" horiz-adv-x="512" d="" />
<glyph unicode="&#xe602;" glyph-name="home3" d="M25.592 358.4c-6.125 0-12.269 2.184-17.166 6.618-10.485 9.485-11.294 25.674-1.808 36.158l452.048 499.632c14.053 15.531 32.995 24.086 53.334 24.086 0 0 0 0 0 0 20.339 0 39.28-8.554 53.333-24.086l452.050-499.634c9.486-10.485 8.677-26.674-1.808-36.158-10.485-9.488-26.674-8.677-36.158 1.808l-452.050 499.635c-4.222 4.667-9.68 7.235-15.366 7.235s-11.146-2.57-15.368-7.237l-452.048-499.632c-5.053-5.587-12.010-8.426-18.992-8.426zM793.6-51.2h-204.8c-14.139 0-25.6 11.461-25.6 25.6v179.2h-102.4v-179.2c0-14.139-11.462-25.6-25.6-25.6h-204.8c-42.347 0-76.8 34.453-76.8 76.8v409.6c0 14.139 11.462 25.6 25.6 25.6s25.6-11.461 25.6-25.6v-409.6c0-14.115 11.485-25.6 25.6-25.6h179.2v179.2c0 14.139 11.462 25.6 25.6 25.6h153.6c14.139 0 25.6-11.461 25.6-25.6v-179.2h179.2c14.115 0 25.6 11.485 25.6 25.6v409.6c0 14.139 11.461 25.6 25.6 25.6s25.6-11.461 25.6-25.6v-409.6c0-42.347-34.453-76.8-76.8-76.8z" />
<glyph unicode="&#xe60c;" glyph-name="apartment" d="M716.8 665.6h51.2v-51.2h-51.2v51.2zM716.8 563.2h51.2v-51.2h-51.2v51.2zM716.8 460.8h51.2v-51.2h-51.2v51.2zM716.8 358.4h51.2v-51.2h-51.2v51.2zM716.8 153.6h51.2v-51.2h-51.2v51.2zM716.8 256h51.2v-51.2h-51.2v51.2zM307.2 665.6h51.2v-51.2h-51.2v51.2zM307.2 563.2h51.2v-51.2h-51.2v51.2zM307.2 460.8h51.2v-51.2h-51.2v51.2zM307.2 358.4h51.2v-51.2h-51.2v51.2zM307.2 153.6h51.2v-51.2h-51.2v51.2zM307.2 256h51.2v-51.2h-51.2v51.2zM204.8 665.6h51.2v-51.2h-51.2v51.2zM204.8 563.2h51.2v-51.2h-51.2v51.2zM204.8 460.8h51.2v-51.2h-51.2v51.2zM204.8 358.4h51.2v-51.2h-51.2v51.2zM204.8 153.6h51.2v-51.2h-51.2v51.2zM204.8 256h51.2v-51.2h-51.2v51.2zM409.6 665.6h51.2v-51.2h-51.2v51.2zM409.6 563.2h51.2v-51.2h-51.2v51.2zM409.6 460.8h51.2v-51.2h-51.2v51.2zM409.6 358.4h51.2v-51.2h-51.2v51.2zM409.6 153.6h51.2v-51.2h-51.2v51.2zM409.6 256h51.2v-51.2h-51.2v51.2zM947.2 0h-25.6v691.2c0 39.058-29.024 79.326-66.077 91.677l-241.123 80.374v83.949c0 8.093-3.827 15.709-10.318 20.539-6.493 4.829-14.888 6.306-22.637 3.981l-462.96-138.886c-37.73-11.32-67.285-51.043-67.285-90.434v-742.4h-25.6c-14.138 0-25.6-11.461-25.6-25.6s11.462-25.6 25.6-25.6h921.6c14.139 0 25.6 11.461 25.6 25.6s-11.461 25.6-25.6 25.6zM839.333 734.304c16.259-5.419 31.067-25.965 31.067-43.104v-691.2h-256v809.282l224.933-74.978zM102.4 742.4c0 16.827 14.678 36.557 30.797 41.392l430.003 129.002v-912.794h-460.8v742.4z" />
<glyph unicode="&#xe66b;" glyph-name="lock" d="M742.4 563.2h-25.6v76.8c0 127.043-103.357 230.4-230.4 230.4s-230.4-103.357-230.4-230.4v-76.8h-25.6c-42.347 0-76.8-34.453-76.8-76.8v-409.6c0-42.347 34.453-76.8 76.8-76.8h512c42.347 0 76.8 34.453 76.8 76.8v409.6c0 42.347-34.453 76.8-76.8 76.8zM307.2 640c0 98.811 80.389 179.2 179.2 179.2s179.2-80.389 179.2-179.2v-76.8h-358.4v76.8zM768 76.8c0-14.115-11.485-25.6-25.6-25.6h-512c-14.115 0-25.6 11.485-25.6 25.6v409.6c0 14.115 11.485 25.6 25.6 25.6h512c14.115 0 25.6-11.485 25.6-25.6v-409.6z" />
<glyph unicode="&#xe681;" glyph-name="trash2" d="M793.6 870.4h-179.2v25.6c0 42.347-34.453 76.8-76.8 76.8h-102.4c-42.347 0-76.8-34.453-76.8-76.8v-25.6h-179.2c-42.347 0-76.8-34.453-76.8-76.8v-51.2c0-33.373 21.403-61.829 51.2-72.397v-644.403c0-42.349 34.453-76.8 76.8-76.8h512c42.349 0 76.8 34.451 76.8 76.8v644.403c29.797 10.568 51.2 39.024 51.2 72.397v51.2c0 42.347-34.451 76.8-76.8 76.8zM409.6 896c0 14.115 11.485 25.6 25.6 25.6h102.4c14.115 0 25.6-11.485 25.6-25.6v-25.6h-153.6v25.6zM742.4 0h-512c-14.115 0-25.6 11.485-25.6 25.6v640h563.2v-640c0-14.115-11.485-25.6-25.6-25.6zM819.2 742.4c0-14.115-11.485-25.6-25.6-25.6h-614.4c-14.115 0-25.6 11.485-25.6 25.6v51.2c0 14.115 11.485 25.6 25.6 25.6h614.4c14.115 0 25.6-11.485 25.6-25.6v-51.2zM640 614.4c-14.139 0-25.6-11.462-25.6-25.6v-512c0-14.139 11.461-25.6 25.6-25.6s25.6 11.461 25.6 25.6v512c0 14.138-11.461 25.6-25.6 25.6zM486.4 614.4c-14.138 0-25.6-11.462-25.6-25.6v-512c0-14.139 11.462-25.6 25.6-25.6s25.6 11.461 25.6 25.6v512c0 14.138-11.462 25.6-25.6 25.6zM332.8 614.4c-14.138 0-25.6-11.462-25.6-25.6v-512c0-14.139 11.462-25.6 25.6-25.6s25.6 11.461 25.6 25.6v512c0 14.138-11.462 25.6-25.6 25.6z" />
<glyph unicode="&#xe68d;" glyph-name="star" d="M793.598 0c-4.205 0-8.422 1.034-12.258 3.126l-269.341 146.912-269.341-146.912c-8.598-4.691-19.118-4.061-27.098 1.613-7.981 5.677-12.022 15.41-10.413 25.069l49.034 294.206-195.483 195.485c-6.781 6.781-9.203 16.782-6.277 25.914s10.712 15.862 20.17 17.438l294.341 49.058 122.17 244.339c4.336 8.674 13.2 14.152 22.898 14.152s18.562-5.478 22.898-14.152l122.17-244.339 294.341-49.058c9.459-1.576 17.243-8.307 20.17-17.438s0.504-19.133-6.277-25.914l-195.483-195.485 49.034-294.206c1.61-9.659-2.434-19.392-10.413-25.069-4.419-3.144-9.621-4.739-14.84-4.739zM512 204.8c4.219 0 8.437-1.042 12.259-3.126l235.445-128.426-42.557 255.344c-1.36 8.155 1.302 16.464 7.15 22.309l169.626 169.626-258.131 43.022c-8.080 1.346-15.027 6.477-18.69 13.803l-105.102 210.205-105.102-210.205c-3.664-7.326-10.61-12.458-18.69-13.803l-258.131-43.022 169.624-169.626c5.846-5.845 8.509-14.155 7.15-22.309l-42.557-255.344 235.446 128.426c3.821 2.085 8.040 3.126 12.259 3.126z" />
<glyph unicode="&#xe696;" glyph-name="envelope" d="M896 665.6h-819.2c-42.347 0-76.8-34.453-76.8-76.8v-460.8c0-42.349 34.453-76.8 76.8-76.8h819.2c42.349 0 76.8 34.451 76.8 76.8v460.8c0 42.347-34.451 76.8-76.8 76.8zM896 614.4c1.514 0 2.99-0.158 4.434-0.411l-385.632-257.090c-14.862-9.907-41.938-9.907-56.802 0l-385.634 257.090c1.443 0.253 2.92 0.411 4.434 0.411h819.2zM896 102.4h-819.2c-14.115 0-25.6 11.485-25.6 25.6v438.566l378.4-252.267c15.925-10.618 36.363-15.925 56.8-15.925s40.877 5.307 56.802 15.925l378.398 252.267v-438.566c0-14.115-11.485-25.6-25.6-25.6z" />
<glyph unicode="&#xe699;" glyph-name="paper-plane" d="M1015.456 915.091c-7.371 6.587-17.877 8.341-26.99 4.502l-972.8-409.6c-9.822-4.136-16.056-13.925-15.646-24.576 0.41-10.65 7.374-19.933 17.486-23.302l289.694-96.566v-288.749c0-10.835 6.822-20.499 17.034-24.125 2.805-0.995 5.698-1.477 8.562-1.477 7.562 0 14.917 3.358 19.874 9.458l141.472 174.12 230.27-227.392c4.851-4.79 11.339-7.384 17.989-7.384 2.133 0 4.283 0.267 6.402 0.814 8.72 2.253 15.616 8.922 18.157 17.563l256 870.4c2.792 9.483-0.13 19.726-7.502 26.314zM825.862 795.576l-497.882-382.986-229.79 76.597 727.672 306.389zM358.4 371.395l482.062 370.816-368.346-453.347c-0.011-0.013-0.022-0.027-0.034-0.040l-113.683-139.92v222.491zM729.922 73.901l-203.342 200.8 411.28 506.192-207.938-706.992z" />
<glyph unicode="&#xe6ae;" glyph-name="floppy-disk" d="M691.2 665.6h-102.4c-14.139 0-25.6 11.462-25.6 25.6v153.6c0 14.138 11.461 25.6 25.6 25.6h102.4c14.139 0 25.6-11.462 25.6-25.6v-153.6c0-14.138-11.461-25.6-25.6-25.6zM614.4 716.8h51.2v102.4h-51.2v-102.4zM1016.501 837.302l-128 128c-4.8 4.8-11.312 7.498-18.101 7.498h-844.8c-14.138 0-25.6-11.462-25.6-25.6v-972.8c0-14.139 11.462-25.6 25.6-25.6h972.8c14.139 0 25.6 11.461 25.6 25.6v844.8c0 6.79-2.698 13.301-7.499 18.102zM307.2 921.6h460.8v-307.2h-460.8v307.2zM819.2 0h-614.4v409.6h614.4v-409.6zM972.8 0h-102.4v435.2c0 14.139-11.461 25.6-25.6 25.6h-665.6c-14.138 0-25.6-11.461-25.6-25.6v-435.2h-102.4v921.6h204.8v-332.8c0-14.138 11.462-25.6 25.6-25.6h512c14.139 0 25.6 11.462 25.6 25.6v332.8h40.595l113.005-113.003v-808.597z" />
<glyph unicode="&#xe714;" glyph-name="book2" d="M742.4 51.2h-512c-14.138 0-25.6 11.461-25.6 25.6s11.462 25.6 25.6 25.6h512c14.139 0 25.6-11.461 25.6-25.6s-11.461-25.6-25.6-25.6zM844.8 819.2c-14.139 0-25.6-11.462-25.6-25.6v-768c0-14.115-11.485-25.6-25.6-25.6h-563.2c-42.347 0-76.8 34.453-76.8 76.8s34.453 76.8 76.8 76.8h460.8c42.349 0 76.8 34.451 76.8 76.8v614.4c0 42.347-34.451 76.8-76.8 76.8h-512c-42.347 0-76.8-34.453-76.8-76.8v-768c0-70.579 57.421-128 128-128h563.2c42.349 0 76.8 34.451 76.8 76.8v768c0 14.138-11.461 25.6-25.6 25.6zM179.2 870.4h512c14.115 0 25.6-11.485 25.6-25.6v-614.4c0-14.115-11.485-25.6-25.6-25.6h-460.8c-28.794 0-55.392-9.563-76.8-25.67v665.67c0 14.115 11.485 25.6 25.6 25.6z" />
<glyph unicode="&#xe71e;" glyph-name="user" d="M486.4 409.6c-155.275 0-281.6 126.325-281.6 281.6s126.325 281.6 281.6 281.6 281.6-126.325 281.6-281.6-126.325-281.6-281.6-281.6zM486.4 921.6c-127.043 0-230.4-103.357-230.4-230.4s103.357-230.4 230.4-230.4c127.042 0 230.4 103.357 230.4 230.4s-103.358 230.4-230.4 230.4zM896-51.2h-819.2c-42.347 0-76.8 34.451-76.8 76.8 0 3.485 0.712 86.285 62.72 168.96 36.094 48.126 85.514 86.36 146.883 113.634 74.957 33.314 168.085 50.206 276.797 50.206 108.71 0 201.838-16.893 276.797-50.206 61.37-27.275 110.789-65.507 146.883-113.634 62.008-82.675 62.72-165.475 62.72-168.96 0-42.349-34.451-76.8-76.8-76.8zM486.4 307.2c-178.52 0-310.267-48.789-381-141.093-53.011-69.174-54.195-139.904-54.2-140.61 0-14.013 11.485-25.498 25.6-25.498h819.2c14.115 0 25.6 11.485 25.6 25.6-0.006 0.603-1.189 71.333-54.198 140.507-70.734 92.304-202.483 141.093-381.002 141.093z" />
<glyph unicode="&#xe74d;" glyph-name="cart" d="M409.6-51.2c-56.464 0-102.4 45.936-102.4 102.4s45.936 102.4 102.4 102.4 102.4-45.936 102.4-102.4-45.936-102.4-102.4-102.4zM409.6 102.4c-28.232 0-51.2-22.968-51.2-51.2s22.968-51.2 51.2-51.2 51.2 22.968 51.2 51.2-22.968 51.2-51.2 51.2zM768-51.2c-56.464 0-102.4 45.936-102.4 102.4s45.936 102.4 102.4 102.4 102.4-45.936 102.4-102.4-45.936-102.4-102.4-102.4zM768 102.4c-28.232 0-51.2-22.968-51.2-51.2s22.968-51.2 51.2-51.2 51.2 22.968 51.2 51.2-22.968 51.2-51.2 51.2zM898.021 744.112c-12.859 15.181-32.258 23.888-53.221 23.888h-626.846l-5.085 30.506c-6.72 40.315-43.998 71.894-84.869 71.894h-51.2c-14.138 0-25.6-11.462-25.6-25.6s11.462-25.6 25.6-25.6h51.2c15.722 0 31.781-13.603 34.366-29.112l85.566-513.395c6.718-40.314 43.997-71.893 84.867-71.893h512c14.139 0 25.6 11.461 25.6 25.6s-11.461 25.6-25.6 25.6h-512c-15.722 0-31.781 13.603-34.366 29.11l-12.63 75.784 510.206 44.366c39.69 3.451 75.907 36.938 82.458 76.234l34.366 206.194c3.448 20.677-1.952 41.243-14.813 56.424zM862.331 696.106l-34.366-206.194c-2.699-16.186-20.043-32.221-36.39-33.645l-514.214-44.714-50.874 305.246h618.314c5.968 0 10.995-2.054 14.155-5.782 3.157-3.73 4.357-9.024 3.376-14.912z" />
<glyph unicode="&#xe752;" glyph-name="cart-add" d="M901.021 767.502c-13.874 2.774-27.35-6.219-30.123-20.083l-41.16-205.795c-3.283-16.413-21.459-32.662-38.136-34.093l-522.77-44.806-55.963 335.781c-6.72 40.315-43.998 71.894-84.869 71.894h-51.2c-14.138 0-25.6-11.462-25.6-25.6s11.462-25.6 25.6-25.6h51.2c15.722 0 31.781-13.603 34.366-29.112l85.566-513.395c6.718-40.314 43.997-71.893 84.867-71.893h512c14.139 0 25.6 11.461 25.6 25.6s-11.461 25.6-25.6 25.6h-512c-15.722 0-31.781 13.603-34.366 29.11l-21.158 126.95 518.698 44.459c39.342 3.371 76.227 36.344 83.97 75.066l41.16 205.795c2.773 13.862-6.218 27.349-20.082 30.122zM409.6-51.2c-56.466 0-102.402 45.936-102.402 102.4s45.938 102.4 102.402 102.4 102.402-45.936 102.402-102.4-45.936-102.4-102.402-102.4zM409.6 102.4c-28.234 0-51.202-22.968-51.202-51.2s22.97-51.2 51.202-51.2 51.202 22.968 51.202 51.2-22.968 51.2-51.202 51.2zM768-51.2c-56.464 0-102.4 45.936-102.4 102.4s45.936 102.4 102.4 102.4 102.4-45.936 102.4-102.4-45.936-102.4-102.4-102.4zM768 102.4c-28.232 0-51.2-22.968-51.2-51.2s22.968-51.2 51.2-51.2 51.2 22.968 51.2 51.2-22.968 51.2-51.2 51.2zM709.301 786.101c-9.997 9.998-26.206 9.998-36.203 0l-109.898-109.898v270.997c0 14.138-11.461 25.6-25.6 25.6s-25.6-11.462-25.6-25.6v-270.997l-109.899 109.898c-9.997 9.998-26.206 9.998-36.203 0-9.998-9.997-9.998-26.206 0-36.203l153.6-153.6c5-4.998 11.55-7.498 18.102-7.498s13.102 2.499 18.101 7.499l153.6 153.6c9.998 9.997 9.998 26.205 0 36.202z" />
<glyph unicode="&#xe76c;" glyph-name="phone-wave" d="M819.2-51.2c-90.691 0-187.154 25.699-286.706 76.386-91.794 46.736-182.48 113.654-262.258 193.522-79.763 79.853-146.595 170.624-193.272 262.498-50.608 99.61-76.269 196.102-76.269 286.795 0 58.774 54.765 115.55 78.31 137.232 33.85 31.17 87.104 67.568 125.794 67.568 19.245 0 41.803-12.589 70.994-39.616 21.782-20.17 46.27-47.51 70.814-79.067 14.794-19.021 88.592-116.267 88.592-162.917 0-38.27-43.25-64.853-89.037-92.998-17.694-10.875-35.992-22.122-49.226-32.73-14.114-11.315-16.645-17.288-17.061-18.629 48.602-121.128 197.141-269.651 318.203-318.184 1.085 0.341 7.067 2.699 18.592 17.075 10.608 13.234 21.854 31.531 32.73 49.227 28.144 45.789 54.726 89.038 92.998 89.038 46.648 0 143.896-73.798 162.917-88.592 31.557-24.546 58.898-49.032 79.067-70.816 27.029-29.189 39.616-51.747 39.616-70.992 0-38.701-36.378-92.115-67.528-126.099-21.693-23.662-78.491-78.701-137.272-78.701zM204.477 921.597c-13.731-0.262-50.634-17.054-90.789-54.029-38.115-35.099-61.792-73.25-61.792-99.568 0-344.523 423.093-768 767.304-768 26.28 0 64.418 23.795 99.528 62.099 37.003 40.366 53.806 77.413 54.069 91.174-1.662 9.728-28.57 47.566-102.232 104.283-63.322 48.765-114.701 74.89-127.901 75.237-0.925-0.274-6.656-2.467-18.277-17.222-10.104-12.834-20.912-30.421-31.366-47.427-28.683-46.666-55.771-90.744-95.118-90.744-6.339 0-12.597 1.219-18.611 3.626-134.373 53.752-293.307 212.685-347.061 347.062-6.456 16.138-7.485 41.414 24.272 70.184 16.882 15.293 40.25 29.656 62.848 43.546 17.006 10.453 34.59 21.261 47.422 31.366 14.755 11.619 16.95 17.352 17.222 18.277-0.352 13.203-26.475 64.579-75.237 127.902-56.72 73.662-94.554 100.571-104.282 102.234zM998.4 512c-14.139 0-25.6 11.462-25.6 25.6 0 211.738-172.261 384-384 384-14.139 0-25.6 11.462-25.6 25.6s11.461 25.6 25.6 25.6c116.245 0 225.534-45.269 307.733-127.467s127.467-191.486 127.467-307.733c0-14.138-11.461-25.6-25.6-25.6zM844.8 512c-14.139 0-25.6 11.462-25.6 25.6 0 127.043-103.357 230.4-230.4 230.4-14.139 0-25.6 11.462-25.6 25.6s11.461 25.6 25.6 25.6c155.275 0 281.6-126.325 281.6-281.6 0-14.138-11.461-25.6-25.6-25.6zM691.2 512c-14.139 0-25.6 11.462-25.6 25.6 0 42.347-34.451 76.8-76.8 76.8-14.139 0-25.6 11.462-25.6 25.6s11.461 25.6 25.6 25.6c70.579 0 128-57.421 128-128 0-14.138-11.461-25.6-25.6-25.6z" />
<glyph unicode="&#xe884;" glyph-name="earth" d="M874.038 822.838c-96.704 96.704-225.278 149.962-362.038 149.962s-265.334-53.258-362.038-149.962c-96.704-96.704-149.962-225.278-149.962-362.038s53.258-265.334 149.962-362.038c96.704-96.704 225.278-149.962 362.038-149.962s265.334 53.258 362.038 149.962c96.704 96.704 149.962 225.278 149.962 362.038s-53.258 265.334-149.962 362.038zM941.918 626.622c-9.989 17.987-35.050 26.512-67.853 37.661-35.182 11.957-47.608 48.122-61.994 89.997-12.49 36.35-25.398 73.874-56.069 97.238 83.898-52.584 149.733-131.406 185.915-224.896zM798.235 451.043c3.872-34.683 7.875-70.546-35.163-118.874-11.629-13.056-18.44-31.238-25.653-50.49-16.701-44.582-32.486-86.709-99.642-87.325-1.882 2.262-7.242 10.734-11.981 37.533-4.366 24.698-6.886 56.606-9.555 90.389-4.093 51.834-8.731 110.582-21.544 159.32-16.382 62.325-43.867 99.141-84.026 112.554-17.522 5.853-35.411 8.698-54.693 8.698-14.211 0-27.125-1.522-38.517-2.864-8.875-1.045-17.258-2.034-24.341-2.034 0 0-0.002 0-0.003 0-11.987 0-25.573 0-42.278 38.29-24.021 55.053-6.304 143.267 64.202 189.787 38.661 25.509 65.336 36.392 89.2 36.392 19.026 0 39.581-6.622 68.73-22.146 34.418-18.33 61.379-20.68 81.026-20.68 7.789 0 14.85 0.419 21.682 0.826 5.726 0.339 11.134 0.661 16.139 0.661 11.259 0 20.387-1.467 31.088-8.776 19.723-13.472 29.936-43.195 40.747-74.664 16.392-47.715 34.973-101.798 93.941-121.837 7.925-2.693 21.576-7.333 31.216-11.366-8.328-8.608-22.285-21.067-35.92-33.24-8.808-7.862-18.789-16.773-29.851-26.858-31.965-29.133-28.16-63.221-24.803-93.296zM51.25 464.73c5.52-0.992 11.493-2.141 17.605-3.446 28.776-6.141 42.235-11.686 48.117-14.798-2.706-5.277-8.187-13.056-11.81-18.195-12.669-17.976-28.435-40.349-22.437-64.984 4.046-16.618 0.632-37.032-5.248-55.883-16.994 48.005-26.277 99.624-26.277 153.378 0 1.314 0.038 2.618 0.050 3.93zM512 0c-175.379 0-328.173 98.494-406.014 243.062 13.422 25.554 38.314 82.054 26.68 131.547 0.806 4.97 9.248 16.95 14.349 24.186 13.874 19.688 31.141 44.189 18.35 70.152-8.976 18.222-32.957 30.534-80.181 41.17-10.939 2.464-21.594 4.47-30.65 6.019 27.424 228.090 222.107 405.464 457.466 405.464 80.776 0 156.749-20.918 222.83-57.582-16.33 7.134-31.154 8.266-43.014 8.266-6.523 0-12.957-0.382-19.176-0.752-6.085-0.362-12.374-0.734-18.645-0.734-14.542 0-32.682 1.742-56.958 14.67-37.056 19.734-64.808 28.155-92.795 28.155-34.635 0-69.744-13.414-117.397-44.856-41.197-27.181-72.229-68.779-87.381-117.133-14.779-47.166-13.2-95.418 4.448-135.867 20.824-47.728 48.336-69.013 89.203-69.014 0.003 0 0.003 0 0.006 0 10.090 0 19.923 1.158 30.333 2.386 10.482 1.235 21.32 2.512 32.525 2.512 13.869 0 26.094-1.926 38.472-6.061 22.488-7.512 39.082-32.701 50.728-77.008 11.648-44.31 16.098-100.638 20.021-150.334 3.274-41.454 6.366-80.61 13.176-110.126 4.136-17.923 9.494-31.538 16.379-41.621 10.283-15.058 25.032-23.35 41.526-23.35 45.269 0 81.429 14.594 107.47 43.374 21.659 23.934 32.722 53.466 41.613 77.194 5.245 14.003 10.67 28.482 15.941 34.402 58.219 65.373 52.203 119.258 47.813 158.603-3.226 28.888-3.285 39.123 8.408 49.781 10.864 9.904 20.741 18.722 29.454 26.499 18.568 16.576 31.984 28.554 41.397 38.83 6.464 7.058 21.603 23.584 17.395 44.28-0.037 0.184-0.088 0.358-0.126 0.539 17.558-48.701 27.154-101.174 27.154-155.851 0-254.086-206.714-460.8-460.8-460.8z" />
<glyph unicode="&#xe8da;" glyph-name="sync" d="M1016.501 530.102c-9.997 9.997-26.206 9.997-36.203 0l-58.832-58.832c-2.63 105.486-44.947 204.27-119.835 279.16-77.362 77.365-180.222 119.97-289.63 119.97-152.28 0-291.122-83.699-362.342-218.435-6.606-12.499-1.83-27.989 10.669-34.597 12.498-6.606 27.989-1.83 34.597 10.669 62.33 117.914 183.826 191.163 317.077 191.163 194.014 0 352.501-154.966 358.224-347.619l-58.522 58.522c-9.997 9.997-26.206 9.997-36.203 0-9.998-9.998-9.998-26.206 0-36.205l102.4-102.4c4.998-4.998 11.549-7.498 18.101-7.498s13.102 2.499 18.101 7.499l102.4 102.4c9.998 9.997 9.998 26.205 0 36.203zM863.674 304.234c-12.502 6.603-27.99 1.832-34.597-10.669-62.328-117.915-183.826-191.165-317.077-191.165-194.016 0-352.502 154.966-358.224 347.621l58.522-58.522c5-5 11.55-7.499 18.102-7.499s13.102 2.499 18.102 7.499c9.997 9.997 9.997 26.206 0 36.203l-102.4 102.4c-9.998 9.997-26.206 9.997-36.205 0l-102.4-102.4c-9.997-9.997-9.997-26.206 0-36.203s26.206-9.997 36.205 0l58.83 58.832c2.63-105.488 44.946-204.272 119.835-279.162 77.365-77.363 180.224-119.97 289.632-119.97 152.28 0 291.12 83.699 362.342 218.435 6.608 12.501 1.829 27.99-10.669 34.598z" />
<glyph unicode="&#xe900;" glyph-name="info" d="M855.881 791.881c-91.701 91.701-213.97 142.647-341.333 142.647s-249.632-50.945-341.333-142.647c-91.701-91.701-142.647-213.97-142.647-341.333s50.945-249.632 142.647-341.333c91.701-91.701 213.97-142.647 341.333-142.647s249.632 50.945 341.333 142.647c91.701 91.701 142.647 213.97 142.647 341.333s-50.945 249.632-142.647 341.333zM514.547 12.418c-239.443 0-433.035 193.592-433.035 433.035s193.592 433.035 433.035 433.035c239.443 0 433.035-193.592 433.035-433.035s-193.592-433.035-433.035-433.035zM514.547 588.1c-15.284 0-25.473-10.189-25.473-25.473v-351.522c0-15.284 10.189-25.473 25.473-25.473s25.473 10.189 25.473 25.473v351.522c0 15.284-15.284 25.473-25.473 25.473zM514.547 705.274c-15.284 0-25.473-10.189-25.473-25.473v-15.284c0-15.284 10.189-25.473 25.473-25.473s25.473 10.189 25.473 25.473v15.284c0 15.284-15.284 25.473-25.473 25.473z" />
<glyph unicode="&#xe901;" glyph-name="save-as" horiz-adv-x="1341" d="M1326.080 253.44l-312.32 256c-5.12 5.12-15.36 5.12-25.6 5.12-10.24-5.12-15.36-10.24-15.36-20.48v-148.48h-30.72v430.080c0 5.12 0 10.24-5.12 15.36l-112.64 117.76c-5.12 5.12-10.24 5.12-15.36 5.12h-768c-20.48 5.12-30.72-5.12-30.72-20.48v-885.76c0-15.36 10.24-25.6 25.6-25.6h885.76c15.36 0 25.6 10.24 25.6 25.6v148.48h30.72v-153.6c0-10.24 5.12-15.36 15.36-20.48 5.12 0 5.12 0 10.24 0s10.24 0 15.36 5.12l312.32 235.52c5.12 5.12 10.24 10.24 10.24 20.48-5.12 0-10.24 5.12-15.36 10.24zM291.84 867.84h419.84v-281.6h-419.84v281.6zM153.6 427.52v-399.36h-97.28v839.68h184.32v-302.080c0-15.36 10.24-25.6 25.6-25.6h465.92c15.36 0 25.6 10.24 25.6 25.6v302.080h35.84l102.4-102.4v-424.96h-92.16v87.040c0 15.36-10.24 25.6-25.6 25.6h-604.16c-10.24-5.12-20.48-15.36-20.48-25.6zM757.76 28.16h-558.080v373.76h558.080v-61.44h-107.52c-15.36 0-25.6-10.24-25.6-25.6v-138.24c0-15.36 10.24-25.6 25.6-25.6h107.52v-122.88zM901.12 28.16h-92.16v122.88h92.16v-122.88zM1024 48.64v128c0 15.36-10.24 25.6-25.6 25.6h-327.68v92.16h327.68c15.36 0 25.6 10.24 25.6 25.6v122.88l250.88-204.8-250.88-189.44z" />
<glyph unicode="&#xe902;" glyph-name="file-excel" d="M936.96 709.12l-240.64 240.64c-10.24 5.12-15.36 10.24-20.48 10.24h-512c-46.080 0-81.92-35.84-81.92-81.92v-860.16c0-46.080 35.84-81.92 81.92-81.92h701.44c46.080 0 81.92 35.84 81.92 81.92v670.72c-5.12 10.24-5.12 15.36-10.24 20.48zM880.64 688.64h-179.2c-15.36 0-25.6 10.24-25.6 25.6v179.2l204.8-204.8zM860.16-7.68h-696.32c-15.36 0-25.6 10.24-25.6 25.6v860.16c0 15.36 10.24 25.6 25.6 25.6h455.68v-189.44c0-46.080 35.84-81.92 81.92-81.92h189.44v-619.52c0-10.24-15.36-20.48-30.72-20.48zM296.96 463.36c-10.24 0-15.36 5.12-20.48 5.12-5.12 5.12-5.12 10.24-5.12 20.48s0 15.36 5.12 20.48c5.12 5.12 10.24 5.12 20.48 5.12h92.16c10.24 0 15.36 0 20.48-5.12 0-5.12 5.12-15.36 5.12-20.48 0-10.24-5.12-15.36-10.24-20.48s-15.36-5.12-25.6-5.12h-10.24l81.92-117.76 87.040 117.76h-10.24c-10.24 0-20.48 0-25.6 5.12-10.24 5.12-15.36 10.24-15.36 20.48s0 15.36 5.12 20.48c5.12 5.12 10.24 5.12 20.48 5.12h92.16c10.24 0 15.36 0 20.48-5.12s5.12-10.24 5.12-20.48c0-10.24 0-15.36-5.12-20.48s-15.36-5.12-25.6-5.12l-112.64-153.6 128-168.96c10.24 0 20.48-5.12 25.6-5.12 5.12-5.12 5.12-10.24 5.12-15.36 0-10.24 0-15.36-5.12-20.48s-10.24-5.12-20.48-5.12h-97.28c-10.24 0-20.48 0-25.6 5.12s-5.12 10.24-5.12 20.48c0 10.24 5.12 15.36 10.24 20.48s15.36 5.12 30.72 5.12h15.36l-92.16 128-97.28-138.24h15.36c15.36 0 25.6 0 35.84-5.12 5.12-5.12 10.24-10.24 10.24-20.48s0-15.36-5.12-20.48c-5.12-5.12-15.36-5.12-25.6-5.12h-102.4c-10.24 0-15.36 0-20.48 5.12s-5.12 10.24-5.12 20.48c0 10.24 0 15.36 5.12 20.48s15.36 5.12 25.6 5.12l122.88 168.96-117.76 158.72z" />
<glyph unicode="&#xe903;" glyph-name="file-pdf" d="M936.96 709.12l-240.64 240.64c-10.24 5.12-15.36 10.24-20.48 10.24h-512c-46.080 0-81.92-35.84-81.92-81.92v-860.16c0-46.080 35.84-81.92 81.92-81.92h701.44c46.080 0 81.92 35.84 81.92 81.92v670.72c-5.12 10.24-5.12 15.36-10.24 20.48zM880.64 688.64h-179.2c-15.36 0-25.6 10.24-25.6 25.6v179.2l204.8-204.8zM860.16-7.68h-696.32c-15.36 0-25.6 10.24-25.6 25.6v860.16c0 15.36 10.24 25.6 25.6 25.6h455.68v-189.44c0-46.080 35.84-81.92 81.92-81.92h189.44v-619.52c0-10.24-15.36-20.48-30.72-20.48zM727.040 345.6c-35.84 5.12-92.16 0-128-5.12-25.6 25.6-61.44 56.32-87.040 102.4 20.48 46.080 30.72 81.92 35.84 107.52 25.6 138.24-138.24 148.48-122.88 0 5.12-40.96 15.36-76.8 30.72-112.64-20.48-51.2-46.080-107.52-71.68-158.72-56.32-20.48-97.28-46.080-122.88-66.56-87.040-81.92 20.48-189.44 102.4-71.68 20.48 25.6 40.96 66.56 56.32 97.28 51.2 20.48 107.52 35.84 163.84 46.080 35.84-25.6 92.16-61.44 138.24-61.44 92.16 0 102.4 112.64 5.12 122.88zM307.2 156.16c-25.6-25.6-40.96-5.12-20.48 15.36 15.36 15.36 40.96 30.72 56.32 40.96-10.24-20.48-25.6-40.96-35.84-56.32zM476.16 591.36c5.12 20.48 20.48 20.48 25.6 0s-5.12-61.44-15.36-76.8c-10.24 20.48-15.36 56.32-10.24 76.8zM450.56 309.76c0 0 25.6 56.32 35.84 81.92 10.24-20.48 46.080-56.32 51.2-61.44-10.24-5.12-61.44-15.36-87.040-20.48zM727.040 273.92c-25.6 0-46.080 10.24-66.56 25.6 25.6 0 46.080 0 56.32 0 35.84-5.12 35.84-25.6 10.24-25.6z" />
<glyph unicode="&#xe904;" glyph-name="file-technical" d="M916.48 698.88l-230.4 230.4c-5.12 5.12-10.24 5.12-20.48 5.12h-486.4c-40.96 0-76.8-35.84-76.8-76.8v-819.2c0-40.96 35.84-76.8 76.8-76.8h665.6c40.96 0 76.8 35.84 76.8 76.8v640c0 5.12-5.12 15.36-5.12 20.48zM665.6 872.96l194.56-194.56h-168.96c-15.36 0-25.6 10.24-25.6 25.6v168.96zM870.4 38.4c0-15.36-10.24-25.6-25.6-25.6h-665.6c-15.36 0-25.6 10.24-25.6 25.6v819.2c0 15.36 10.24 25.6 25.6 25.6h435.2v-179.2c0-40.96 35.84-76.8 76.8-76.8h179.2v-588.8zM578.56 504.32c0 97.28-81.92 179.2-179.2 179.2-25.6 0-46.080-5.12-66.56-15.36-10.24-5.12-15.36-10.24-15.36-20.48s0-15.36 5.12-25.6l71.68-71.68v-46.080h-40.96l-71.68 76.8c-10.24 5.12-15.36 10.24-25.6 10.24s-15.36-5.12-20.48-15.36c-10.24-25.6-15.36-51.2-15.36-71.68 0-97.28 81.92-179.2 179.2-179.2 20.48 0 40.96 5.12 61.44 10.24l215.040-215.040c15.36-15.36 30.72-20.48 51.2-20.48s35.84 5.12 51.2 20.48c30.72 30.72 30.72 76.8 0 102.4 0 0 0 0 0 0l-215.040 215.040c10.24 20.48 15.36 40.96 15.36 66.56zM742.4 186.88c10.24-10.24 10.24-20.48 0-30.72s-20.48-10.24-30.72 0l-230.4 230.4c-5.12 5.12-10.24 5.12-20.48 5.12-5.12 0-5.12 0-10.24 0-15.36-10.24-35.84-15.36-56.32-15.36-71.68 0-128 56.32-128 128 0 5.12 0 10.24 0 15.36l51.2-51.2c5.12-5.12 10.24-5.12 15.36-5.12l76.8-5.12c5.12 0 15.36 0 20.48 5.12s10.24 10.24 10.24 15.36l5.12 81.92c0 5.12 0 15.36-5.12 20.48l-46.080 46.080c71.68 5.12 133.12-56.32 133.12-128 0-20.48-5.12-40.96-15.36-56.32-5.12-10.24-5.12-20.48 5.12-30.72l225.28-225.28z" />
<glyph unicode="&#xe914;" glyph-name="file-spreadsheet" d="M914.101 683.701l-230.4 230.4c-4.8 4.802-11.312 7.499-18.101 7.499h-486.4c-42.347 0-76.8-34.453-76.8-76.8v-819.2c0-42.349 34.453-76.8 76.8-76.8h665.6c42.349 0 76.8 34.451 76.8 76.8v640c0 6.79-2.698 13.301-7.499 18.101zM859.797 665.6h-168.597c-14.115 0-25.6 11.485-25.6 25.6v168.597l194.197-194.197zM844.8 0h-665.6c-14.115 0-25.6 11.485-25.6 25.6v819.2c0 14.115 11.485 25.6 25.6 25.6h435.2v-179.2c0-42.347 34.451-76.8 76.8-76.8h179.2v-588.8c0-14.115-11.485-25.6-25.6-25.6zM742.4 460.8h-460.8c-14.138 0-25.6-11.461-25.6-25.6v-307.2c0-14.139 11.462-25.6 25.6-25.6h460.8c14.139 0 25.6 11.461 25.6 25.6v307.2c0 14.139-11.461 25.6-25.6 25.6zM716.8 307.2h-102.4v102.4h102.4v-102.4zM460.8 307.2v102.4h102.4v-102.4h-102.4zM563.2 256v-102.4h-102.4v102.4h102.4zM409.6 409.6v-102.4h-102.4v102.4h102.4zM307.2 256h102.4v-102.4h-102.4v102.4zM614.4 153.6v102.4h102.4v-102.4h-102.4z" />
<glyph unicode="&#xe922;" glyph-name="magnifier" d="M966.070-8.301l-304.302 331.965c68.573 71.754 106.232 165.549 106.232 265.136 0 102.57-39.942 199-112.47 271.53s-168.96 112.47-271.53 112.47-199-39.942-271.53-112.47-112.47-168.96-112.47-271.53 39.942-199.002 112.47-271.53 168.96-112.47 271.53-112.47c88.362 0 172.152 29.667 240.043 84.248l304.285-331.947c5.050-5.507 11.954-8.301 18.878-8.301 6.179 0 12.378 2.226 17.293 6.728 10.421 9.555 11.126 25.749 1.571 36.171zM51.2 588.8c0 183.506 149.294 332.8 332.8 332.8s332.8-149.294 332.8-332.8-149.294-332.8-332.8-332.8-332.8 149.294-332.8 332.8z" />
<glyph unicode="&#xe92b;" glyph-name="menu" d="M896 665.6h-768c-14.138 0-25.6 11.462-25.6 25.6s11.462 25.6 25.6 25.6h768c14.139 0 25.6-11.462 25.6-25.6s-11.461-25.6-25.6-25.6zM896 409.6h-768c-14.138 0-25.6 11.461-25.6 25.6s11.462 25.6 25.6 25.6h768c14.139 0 25.6-11.461 25.6-25.6s-11.461-25.6-25.6-25.6zM896 153.6h-768c-14.138 0-25.6 11.461-25.6 25.6s11.462 25.6 25.6 25.6h768c14.139 0 25.6-11.461 25.6-25.6s-11.461-25.6-25.6-25.6z" />
<glyph unicode="&#xe934;" glyph-name="check" d="M281.6 76.8c-6.552 0-13.102 2.499-18.102 7.499l-256 256c-9.997 9.997-9.997 26.206 0 36.203s26.206 9.997 36.205 0l237.898-237.898 698.699 698.698c9.997 9.997 26.206 9.997 36.203 0s9.998-26.206 0-36.205l-716.8-716.8c-5-4.998-11.55-7.498-18.102-7.498z" />
<glyph unicode="&#xe935;" glyph-name="cross2" d="M548.203 435.2l442.698 442.699c9.998 9.997 9.998 26.206 0 36.203-9.997 9.998-26.206 9.998-36.203 0l-442.698-442.699-442.699 442.698c-9.997 9.998-26.206 9.998-36.203 0-9.998-9.997-9.998-26.206 0-36.203l442.699-442.698-442.698-442.699c-9.998-9.997-9.998-26.206 0-36.203 4.998-4.998 11.549-7.498 18.101-7.498s13.102 2.499 18.101 7.499l442.699 442.698 442.699-442.699c4.998-4.998 11.549-7.498 18.101-7.498s13.102 2.499 18.101 7.499c9.998 9.997 9.998 26.206 0 36.203l-442.698 442.698z" />
<glyph unicode="&#xe936;" glyph-name="plus" d="M947.2 460.8h-435.2v435.2c0 14.138-11.462 25.6-25.6 25.6s-25.6-11.462-25.6-25.6v-435.2h-435.2c-14.138 0-25.6-11.461-25.6-25.6s11.462-25.6 25.6-25.6h435.2v-435.2c0-14.139 11.462-25.6 25.6-25.6s25.6 11.461 25.6 25.6v435.2h435.2c14.139 0 25.6 11.461 25.6 25.6s-11.461 25.6-25.6 25.6z" />
<glyph unicode="&#xe937;" glyph-name="minus" d="M947.2 409.6h-921.6c-14.138 0-25.6 11.461-25.6 25.6s11.462 25.6 25.6 25.6h921.6c14.139 0 25.6-11.461 25.6-25.6s-11.461-25.6-25.6-25.6z" />
<glyph unicode="&#xe939;" glyph-name="chevron-up" d="M0 204.8c0-6.552 2.499-13.102 7.499-18.101 9.997-9.998 26.206-9.998 36.203 0l442.698 442.698 442.699-442.698c9.997-9.998 26.206-9.998 36.203 0s9.998 26.206 0 36.203l-460.8 460.8c-9.997 9.998-26.206 9.998-36.203 0l-460.8-460.8c-5-5-7.499-11.55-7.499-18.102z" />
<glyph unicode="&#xe93a;" glyph-name="chevron-down" d="M0 665.6c0 6.552 2.499 13.102 7.499 18.101 9.997 9.998 26.206 9.998 36.203 0l442.698-442.698 442.699 442.698c9.997 9.998 26.206 9.998 36.203 0s9.998-26.206 0-36.203l-460.8-460.8c-9.997-9.998-26.206-9.998-36.203 0l-460.8 460.8c-5 5-7.499 11.55-7.499 18.102z" />
<glyph unicode="&#xe93b;" glyph-name="chevron-left" d="M716.8-51.2c6.552 0 13.102 2.499 18.101 7.499 9.998 9.997 9.998 26.206 0 36.203l-442.698 442.698 442.698 442.699c9.998 9.997 9.998 26.206 0 36.203s-26.206 9.998-36.203 0l-460.8-460.8c-9.998-9.997-9.998-26.206 0-36.203l460.8-460.8c5-5 11.55-7.499 18.102-7.499z" />
<glyph unicode="&#xe93c;" glyph-name="chevron-right" d="M256-51.2c-6.552 0-13.102 2.499-18.101 7.499-9.998 9.997-9.998 26.206 0 36.203l442.698 442.698-442.698 442.699c-9.998 9.997-9.998 26.206 0 36.203 9.997 9.998 26.206 9.998 36.203 0l460.8-460.8c9.998-9.997 9.998-26.206 0-36.203l-460.8-460.8c-5-5-11.55-7.499-18.102-7.499z" />
<glyph unicode="&#xe94a;" glyph-name="expand" d="M402.102 606.902l-314.698 314.698h194.195c14.138 0 25.6 11.462 25.6 25.6s-11.462 25.6-25.6 25.6h-256c-14.138 0-25.6-11.462-25.6-25.6v-256c0-14.138 11.462-25.6 25.6-25.6s25.6 11.462 25.6 25.6v194.195l314.698-314.698c5-4.998 11.55-7.498 18.102-7.498s13.102 2.499 18.102 7.498c9.997 9.998 9.997 26.206 0 36.205zM998.4 972.8h-256c-14.139 0-25.6-11.462-25.6-25.6s11.461-25.6 25.6-25.6h194.197l-314.696-314.698c-10-9.998-10-26.206 0-36.205 4.997-4.998 11.547-7.498 18.099-7.498s13.102 2.499 18.099 7.498l314.701 314.699v-194.197c0-14.138 11.461-25.6 25.6-25.6s25.6 11.462 25.6 25.6v256c0 14.138-11.461 25.6-25.6 25.6zM402.102 350.899c-9.998 9.997-26.206 9.997-36.205 0l-314.698-314.696v194.197c0 14.139-11.462 25.6-25.6 25.6s-25.6-11.461-25.6-25.6v-256c0-14.139 11.462-25.6 25.6-25.6h256c14.138 0 25.6 11.461 25.6 25.6s-11.462 25.6-25.6 25.6h-194.197l314.699 314.701c9.997 9.995 9.997 26.203 0 36.198zM998.4 256c-14.139 0-25.6-11.461-25.6-25.6v-194.197l-314.701 314.696c-9.995 9.997-26.206 9.997-36.203 0-9.997-9.995-9.997-26.206 0-36.203l314.701-314.696h-194.197c-14.139 0-25.6-11.461-25.6-25.6s11.461-25.6 25.6-25.6h256c14.139 0 25.6 11.461 25.6 25.6v256c0 14.139-11.461 25.6-25.6 25.6z" />
<glyph unicode="&#xe954;" glyph-name="notification" d="M486.4-34.342c-5.28 0-10.562 1.63-15.048 4.89l-109.966 79.898h-135.928c-11.091 0-20.92 7.141-24.347 17.69l-42.003 129.274-109.968 79.898c-8.971 6.518-12.726 18.074-9.299 28.622l42.003 129.272-42.003 129.275c-3.427 10.547 0.328 22.102 9.299 28.622l109.968 79.896 42.003 129.275c3.427 10.547 13.256 17.69 24.347 17.69h135.928l109.966 79.896c8.973 6.518 21.122 6.518 30.096 0l109.966-79.896h135.928c11.091 0 20.92-7.141 24.347-17.69l42.005-129.275 109.966-79.896c8.973-6.518 12.726-18.074 9.299-28.622l-42.002-129.275 42.003-129.275c3.427-10.549-0.326-22.102-9.299-28.622l-109.966-79.898-42.005-129.274c-3.427-10.549-13.256-17.69-24.347-17.69h-135.926l-109.968-79.898c-4.488-3.256-9.77-4.886-15.050-4.886zM244.056 101.643h125.646c5.406 0 10.674-1.71 15.048-4.89l101.65-73.853 101.65 73.853c4.373 3.178 9.64 4.89 15.046 4.89h125.645l38.829 119.496c1.67 5.142 4.926 9.622 9.299 12.8l101.65 73.853-38.827 119.498c-1.67 5.142-1.67 10.68 0 15.822l38.827 119.496-101.65 73.853c-4.373 3.178-7.63 7.659-9.299 12.8l-38.829 119.498h-125.645c-5.406 0-10.674 1.712-15.046 4.89l-101.65 73.851-101.65-73.853c-4.374-3.178-9.642-4.89-15.048-4.89h-125.646l-38.827-119.498c-1.67-5.141-4.926-9.622-9.299-12.8l-101.65-73.851 38.827-119.498c1.67-5.142 1.67-10.68 0-15.822l-38.827-119.496 101.65-73.853c4.373-3.178 7.629-7.658 9.299-12.8l38.827-119.496zM486.4 358.4c-14.138 0-25.6 11.461-25.6 25.6v256c0 14.138 11.462 25.6 25.6 25.6s25.6-11.462 25.6-25.6v-256c0-14.139-11.462-25.6-25.6-25.6zM486.4 204.8c-14.138 0-25.6 11.461-25.6 25.6v51.2c0 14.139 11.462 25.6 25.6 25.6s25.6-11.461 25.6-25.6v-51.2c0-14.139-11.462-25.6-25.6-25.6z" />
<glyph unicode="&#xe955;" glyph-name="warning" d="M947.2 0h-921.6c-9.094 0-17.507 4.826-22.099 12.677s-4.672 17.547-0.214 25.474l460.8 819.2c4.536 8.061 13.066 13.050 22.314 13.050s17.778-4.989 22.312-13.050l460.8-819.2c4.459-7.926 4.376-17.624-0.214-25.474-4.592-7.851-13.002-12.677-22.098-12.677zM69.371 51.2h834.056l-417.027 741.382-417.029-741.382zM486.4 256c-14.138 0-25.6 11.461-25.6 25.6v256c0 14.138 11.462 25.6 25.6 25.6s25.6-11.462 25.6-25.6v-256c0-14.139-11.462-25.6-25.6-25.6zM486.4 102.4c-14.138 0-25.6 11.461-25.6 25.6v51.2c0 14.139 11.462 25.6 25.6 25.6s25.6-11.461 25.6-25.6v-51.2c0-14.139-11.462-25.6-25.6-25.6z" />
<glyph unicode="&#xe959;" glyph-name="checkmark-circle" d="M486.4-51.2c-129.922 0-252.067 50.594-343.936 142.464s-142.464 214.014-142.464 343.936c0 129.923 50.595 252.067 142.464 343.936s214.013 142.464 343.936 142.464c129.922 0 252.067-50.595 343.936-142.464s142.464-214.014 142.464-343.936-50.594-252.067-142.464-343.936c-91.869-91.87-214.014-142.464-343.936-142.464zM486.4 870.4c-239.97 0-435.2-195.23-435.2-435.2s195.23-435.2 435.2-435.2 435.2 195.23 435.2 435.2-195.23 435.2-435.2 435.2zM384 230.4c-6.552 0-13.102 2.499-18.102 7.499l-153.6 153.6c-9.997 9.997-9.997 26.206 0 36.203 9.998 9.997 26.206 9.997 36.205 0l135.498-135.498 340.299 340.298c9.997 9.997 26.206 9.997 36.203 0 9.998-9.998 9.998-26.206 0-36.205l-358.4-358.4c-5-4.998-11.55-7.498-18.102-7.498z" />
<glyph unicode="&#xe962;" glyph-name="chevron-up-circle" d="M142.464 779.138c-91.869-91.869-142.464-214.016-142.464-343.938s50.595-252.067 142.464-343.936 214.014-142.464 343.936-142.464 252.069 50.595 343.938 142.464 142.462 214.014 142.462 343.936-50.594 252.069-142.462 343.938-214.016 142.462-343.938 142.462-252.067-50.594-343.936-142.462zM921.6 435.2c0-239.97-195.23-435.2-435.2-435.2s-435.2 195.23-435.2 435.2c0 239.97 195.23 435.2 435.2 435.2s435.2-195.23 435.2-435.2zM768 358.4c0-6.552-2.499-13.102-7.499-18.102-9.997-9.997-26.206-9.997-36.203 0l-237.898 237.898-237.898-237.898c-9.998-9.997-26.206-9.997-36.205 0-9.997 9.998-9.997 26.206 0 36.205l256 256c9.997 9.998 26.206 9.998 36.203 0l256-256c5-5 7.499-11.55 7.499-18.102z" />
<glyph unicode="&#xe963;" glyph-name="chevron-down-circle" d="M830.336 91.262c91.869 91.869 142.464 214.016 142.464 343.938s-50.595 252.067-142.464 343.936-214.014 142.464-343.936 142.464-252.069-50.595-343.938-142.464-142.462-214.014-142.462-343.936 50.594-252.069 142.462-343.938 214.016-142.462 343.938-142.462 252.067 50.594 343.936 142.462zM51.2 435.2c0 239.97 195.23 435.2 435.2 435.2s435.2-195.23 435.2-435.2c0-239.97-195.23-435.2-435.2-435.2s-435.2 195.23-435.2 435.2zM204.8 512c0 6.552 2.499 13.102 7.499 18.102 9.997 9.997 26.206 9.997 36.203 0l237.898-237.898 237.898 237.898c9.998 9.997 26.206 9.997 36.205 0 9.997-9.998 9.997-26.206 0-36.205l-256-256c-9.997-9.998-26.206-9.998-36.203 0l-256 256c-5 5-7.499 11.55-7.499 18.102z" />
<glyph unicode="&#xe964;" glyph-name="chevron-left-circle" d="M142.462 779.136c91.869 91.869 214.016 142.464 343.938 142.464s252.067-50.595 343.936-142.464 142.464-214.014 142.464-343.936-50.595-252.069-142.464-343.938-214.014-142.462-343.936-142.462-252.069 50.594-343.938 142.462-142.462 214.016-142.462 343.938 50.594 252.067 142.462 343.936zM486.4 0c239.97 0 435.2 195.23 435.2 435.2s-195.23 435.2-435.2 435.2c-239.97 0-435.2-195.23-435.2-435.2s195.23-435.2 435.2-435.2zM563.2 153.6c6.552 0 13.102 2.499 18.102 7.499 9.997 9.997 9.997 26.206 0 36.203l-237.898 237.898 237.898 237.898c9.997 9.998 9.997 26.206 0 36.205-9.998 9.997-26.206 9.997-36.205 0l-256-256c-9.998-9.997-9.998-26.206 0-36.203l256-256c5-5 11.55-7.499 18.102-7.499z" />
<glyph unicode="&#xe965;" glyph-name="chevron-right-circle" d="M830.338 779.136c-91.869 91.869-214.016 142.464-343.938 142.464s-252.067-50.595-343.936-142.464-142.464-214.014-142.464-343.936 50.595-252.069 142.464-343.938 214.014-142.462 343.936-142.462 252.069 50.594 343.938 142.462 142.462 214.016 142.462 343.938-50.594 252.067-142.462 343.936zM486.4 0c-239.97 0-435.2 195.23-435.2 435.2s195.23 435.2 435.2 435.2c239.97 0 435.2-195.23 435.2-435.2s-195.23-435.2-435.2-435.2zM409.6 153.6c-6.552 0-13.102 2.499-18.102 7.499-9.997 9.997-9.997 26.206 0 36.203l237.898 237.898-237.898 237.898c-9.997 9.998-9.997 26.206 0 36.205 9.998 9.997 26.206 9.997 36.205 0l256-256c9.998-9.997 9.998-26.206 0-36.203l-256-256c-5-5-11.55-7.499-18.102-7.499z" />
<glyph unicode="&#xe98d;" glyph-name="square" d="M896-51.2h-819.2c-42.347 0-76.8 34.451-76.8 76.8v819.2c0 42.347 34.453 76.8 76.8 76.8h819.2c42.349 0 76.8-34.453 76.8-76.8v-819.2c0-42.349-34.451-76.8-76.8-76.8zM76.8 870.4c-14.115 0-25.6-11.485-25.6-25.6v-819.2c0-14.115 11.485-25.6 25.6-25.6h819.2c14.115 0 25.6 11.485 25.6 25.6v819.2c0 14.115-11.485 25.6-25.6 25.6h-819.2z" />
<glyph unicode="&#xe999;" glyph-name="check-square" d="M896-51.2h-819.2c-42.347 0-76.8 34.451-76.8 76.8v819.2c0 42.347 34.453 76.8 76.8 76.8h819.2c42.349 0 76.8-34.453 76.8-76.8v-819.2c0-42.349-34.451-76.8-76.8-76.8zM76.8 870.4c-14.115 0-25.6-11.485-25.6-25.6v-819.2c0-14.115 11.485-25.6 25.6-25.6h819.2c14.115 0 25.6 11.485 25.6 25.6v819.2c0 14.115-11.485 25.6-25.6 25.6h-819.2zM384 230.4c-6.552 0-13.102 2.499-18.102 7.499l-153.6 153.6c-9.997 9.997-9.997 26.206 0 36.203 9.998 9.997 26.206 9.997 36.205 0l135.498-135.498 340.299 340.298c9.997 9.997 26.206 9.997 36.203 0 9.998-9.998 9.998-26.206 0-36.205l-358.4-358.4c-5-4.998-11.55-7.498-18.102-7.498z" />
</font></defs></svg>